PurpleAir Data Exploration
…
At a glance, the PAS has several useful columns of data we can explore. There are column recordings of temperature, relative humidity, pressure, and air quality.

We are interested in PM2.5 (particulate matter smaller than 2.5 micrometers in diameter). There are 6 columns related to PM2.5 measurements. These are average PM2.5 measurements taken by the sensor for a certain period of time. Notice how each column starts with the prefix pm2.5. We can pull only those columns that begin with this prefix and store them as a new R object. Each row corresponds to one sensor so it is also a good idea to include the locationID of each sensor with our new pm25 object.

NOTE: The variable names of your PAS object may differ slightly from the examples provided here. Make sure you adapt the variable names such as locationID and pm2.5_ exactly (case-sensitive, spelling, punctuation) so they match as specified in your PAS object.

# Take a look at only PM2.5 data
pm25 <- pas %>%
  select(locationID, starts_with("pm2.5_"))
print(pm25, n=10)

# A tibble: 71 × 7
   locationID       pm2.5_10minute pm2.5_30minute pm2.5_60minute pm2.5_6hour
   <chr>                     <dbl>          <dbl>          <dbl>       <dbl>
 1 9895b71fbbf35c6d            0.1            0.7            0.9         5.9
 2 95a6c622a9a72fea            0.2            0.2            0.2         0.8
 3 af12e32be721b523            1              0.6            0.4         2.8
 4 af0fa502ab6a6f67            0.9            0.5            0.4         2.7
 5 cc5d102d7e3ad2e3            7.6            5.8            4.2         2.4
 6 b63ed404a9340eb9            0.6            0.3            0.2         2.1
 7 1cd3e0285ecbd56d            0.9            0.4            0.4         2.8
 8 037f24ed1bc09882            1.2            0.6            0.4         3.1
 9 725fc0be432ca440            0.9            0.4            0.4         2.7
10 e2a73db743ea5437            1.7            1.2            1           3.8
# ℹ 61 more rows
# ℹ 2 more variables: pm2.5_24hour <dbl>, pm2.5_1week <dbl>
…
data - Includes time series data that changes with time. Each row corresponds to a snapshot of data taken from sensor_index 3515 at a certain time (in UTC) and date.

# Examine time series data
print(pat$data, n=10)

# A tibble: 2,424 × 21
   datetime            sensor_index  rssi uptime pa_latency memory humidity
   <dttm>                     <dbl> <dbl>  <dbl>      <dbl>  <dbl>    <dbl>
 1 2022-07-01 00:04:43         3515   -75   6470       3356   9208       40
 2 2022-07-01 00:06:45         3515   -78   6592       1454   8232       40
 3 2022-07-01 00:28:37         3515   -78    115         NA  15496       43
 4 2022-07-01 00:30:38         3515   -78    235        654  15400       44
 5 2022-07-01 00:32:46         3515   -74    357        403  15336       44
 6 2022-07-01 00:34:37         3515   -79    475       2938  15336       44
 7 2022-07-01 00:36:39         3515   -78    595        622  15336       45
 8 2022-07-01 00:38:41         3515   -82    717        589  15336       45
 9 2022-07-01 00:40:41         3515   -79    838       3209  15336       45
10 2022-07-01 00:43:24         3515   -76    955       3296  15032       45
# ℹ 2,414 more rows
# ℹ 14 more variables: temperature <dbl>, pressure <dbl>, pm1_atm_A <dbl>,
#   pm1_atm_B <dbl>, pm25_atm_A <dbl>, pm25_atm_B <dbl>, pm10_atm_A <dbl>,
#   pm10_atm_B <dbl>, pm25_A <dbl>, pm25_B <dbl>, adc0 <dbl>, bsec_iaq <dbl>,
#   datetime_A <dttm>, datetime_B <dttm>
…
